{
    "browsers": [
        "chrome",
        "firefox"
    ],
    "protocal": "http",
    "host": "localhost",
    "port": null,
    "caseTimeout": 10000,
    "testLib": {
        "name": "mocha"
    },
    "summary": {
        "fileName": "report_summary.html",
        "htmlType": ".html",
        "shotType": ".png",
        "open": true,
        "timeStart": "2014-12-01T03:43:45.216Z",
        "timeEnd": "2014-12-01T03:44:18.992Z"
    },
    "serverConf": {
        "name": ".tmpTestReporterServer"
    },
    "domain": "http://localhost"
}